hw02_dplyr
…
#1.3

lifeExpchange1 <- gapminder %>% 
  arrange(year) %>% 
  mutate(lifeExpchange = lifeExp - lag(lifeExp))
lifeExpchange1 %>% 
  filter(lifeExpchange<0)

## # A tibble: 857 x 7
##    country               continent  year lifeExp     pop gdpPercap lifeExpchange
##    <fct>                 <fct>     <int>   <dbl>   <int>     <dbl>         <dbl>
##  1 Algeria               Africa     1952    43.1  9.28e6     2449.       -12.2  
##  2 Angola                Africa     1952    30.0  4.23e6     3521.       -13.1  
##  3 Austria               Europe     1952    66.8  6.93e6     6137.        -2.32 
##  4 Bahrain               Asia       1952    50.9  1.20e5     9867.       -15.9  
##  5 Bangladesh            Asia       1952    37.5  4.69e7      684.       -13.5  
##  6 Benin                 Africa     1952    38.2  1.74e6     1063.       -29.8  
##  7 Botswana              Africa     1952    47.6  4.42e5      851.        -6.20 
##  8 Burkina Faso          Africa     1952    32.0  4.47e6      543.       -27.6  
##  9 Cameroon              Africa     1952    38.5  5.01e6     1173.        -0.894
## 10 Central African Repu Africa     1952    35.5  1.29e6     1071.       -33.3  
## #  with 847 more rows

#1.4

gapminder %>%
  group_by(country) %>%
  summarize(maxGdpPercap = max(gdpPercap))

## # A tibble: 142 x 2
##    country     maxGdpPercap
##  * <fct>              <dbl>
##  1 Afghanistan         978.
##  2 Albania            5937.
##  3 Algeria            6223.
##  4 Angola             5523.
##  5 Argentina         12779.
##  6 Australia         34435.
##  7 Austria           36126.
##  8 Bahrain           29796.
##  9 Bangladesh         1391.
## 10 Belgium           33693.
## #  with 132 more rows
…
#2.1

palmerpenguins::penguins

## # A tibble: 344 x 8
##    species island bill_length_mm bill_depth_mm flipper_length_ body_mass_g
##    <fct>   <fct>           <dbl>         <dbl>            <int>       <int>
##  1 Adelie  Torge           39.1          18.7              181        3750
##  2 Adelie  Torge           39.5          17.4              186        3800
##  3 Adelie  Torge           40.3          18                195        3250
##  4 Adelie  Torge           NA            NA                 NA          NA
##  5 Adelie  Torge           36.7          19.3              193        3450
##  6 Adelie  Torge           39.3          20.6              190        3650
##  7 Adelie  Torge           38.9          17.8              181        3625
##  8 Adelie  Torge           39.2          19.6              195        4675
##  9 Adelie  Torge           34.1          18.1              193        3475
## 10 Adelie  Torge           42            20.2              190        4250
## #  with 334 more rows, and 2 more variables: sex <fct>, year <int>
…
#bonus

library(gapminder)
gapminder %>% 
  filter(country == "Rwanda" | country == "Afghanistan")

## # A tibble: 24 x 6
##    country     continent  year lifeExp      pop gdpPercap
##    <fct>       <fct>     <int>   <dbl>    <int>     <dbl>
##  1 Afghanistan Asia       1952    28.8  8425333      779.
##  2 Afghanistan Asia       1957    30.3  9240934      821.
##  3 Afghanistan Asia       1962    32.0 10267083      853.
##  4 Afghanistan Asia       1967    34.0 11537966      836.
##  5 Afghanistan Asia       1972    36.1 13079460      740.
##  6 Afghanistan Asia       1977    38.4 14880372      786.
##  7 Afghanistan Asia       1982    39.9 12881816      978.
##  8 Afghanistan Asia       1987    40.8 13867957      852.
##  9 Afghanistan Asia       1992    41.7 16317921      649.
## 10 Afghanistan Asia       1997    41.8 22227415      635.
## #  with 14 more rows
